/* XPM */
static char * btcnotify_up_xpm[] = {
"64 64 2 1",
" 	c None",
".	c #007A00",
"                                                                ",
"                                                                ",
"                                                                ",
"                                                                ",
"                                                                ",
"                                                                ",
"                                                                ",
"                                                                ",
"                                                                ",
"                                                                ",
"                                                                ",
"                                                                ",
"                               ...                              ",
"                               ..    .                          ",
"                              ...    ...                        ",
"                              ...    ...                        ",
"                      ....    ...   ...                         ",
"                      ..........    ...                         ",
"                      ............  ...                         ",
"                         ..............                         ",
"                          ...............                       ",
"                          .................                     ",
"                          .....     ........                    ",
"                         ......       .......                   ",
"                         ......        ......                   ",
"                         .....         .......                  ",
"                         .....          ......                  ",
"                        ......          ......                  ",
"                        ......         ......                   ",
"                        .......       .......                   ",
"                        ....................                    ",
"                       ....................                     ",
"                       ......   ..........                      ",
"                       .....       .......                      ",
"                       .....         .......                    ",
"                      ......          ......                    ",
"                      ......          .......                   ",
"                      ......           ......                   ",
"                 ..  ......            ......                   ",
"                 ..........           .......                   ",
"                 ..........           .......                   ",
"                 ...............   .........                    ",
"                     .......................                    ",
"                       ....................                     ",
"                       ...  ..............                      ",
"                       ..    ...........                        ",
"                      ...    ...                                ",
"                      ...    ...                                ",
"                      ...    ..                                 ",
"                            ...                                 ",
"                            ...                                 ",
"                                                                ",
"                                                                ",
"                                                                ",
"                                                                ",
"                                                                ",
"                                                                ",
"                                                                ",
"                                                                ",
"                                                                ",
"                                                                ",
"                                                                ",
"                                                                ",
"                                                                "};
